{
	"info": {
		"_postman_id": "ec2545e3-499a-4930-9289-fb232911bb9c",
		"name": "shom",
		"schema": "https://schema.getpostman.com/json/collection/v2.1.0/collection.json"
	},
	"item": [
		{
			"name": "maree",
			"request": {
				"method": "GET",
				"header": [
					{
						"key": "Host",
						"value": " services.data.shom.fr",
						"type": "text"
					},
					{
						"key": "User-Agent",
						"value": " Mozilla/5.0 (X11; Ubuntu; Linux i686; rv:71.0) Gecko/20100101 Firefox/71.0",
						"type": "text"
					},
					{
						"key": "Accept",
						"value": " */*",
						"type": "text"
					},
					{
						"key": "Accept-Language",
						"value": " en-US,en;q=0.5",
						"type": "text"
					},
					{
						"key": "Accept-Encoding",
						"value": " gzip, deflate, br",
						"type": "text"
					},
					{
						"key": "Origin",
						"value": " https://maree.shom.fr",
						"type": "text"
					},
					{
						"key": "Connection",
						"value": " keep-alive",
						"type": "text"
					},
					{
						"key": "Referer",
						"value": " https://maree.shom.fr/harbor/PLOUMANACH/hlt/0?date=2019-12-21&utc=standard",
						"type": "text"
					}
				],
				"url": {
					"raw": "https://services.data.shom.fr/b2q8lrcdl4s04cbabsj4nhcb/hdm/spm/hlt?harborName=PLOUMANACH&duration=7&date=2019-12-22&utc=standard&correlation=1",
					"protocol": "https",
					"host": [
						"services",
						"data",
						"shom",
						"fr"
					],
					"path": [
						"b2q8lrcdl4s04cbabsj4nhcb",
						"hdm",
						"spm",
						"hlt"
					],
					"query": [
						{
							"key": "harborName",
							"value": "PLOUMANACH"
						},
						{
							"key": "duration",
							"value": "7"
						},
						{
							"key": "date",
							"value": "2019-12-22"
						},
						{
							"key": "utc",
							"value": "standard"
						},
						{
							"key": "correlation",
							"value": "1"
						}
					]
				}
			},
			"response": []
		}
	]
}